Data Manipulation in R with dplyr - ugo_r_doc
…
 6
 7
 8
 9
10
11
12
13
14
15
16
17
18

## # A tibble: 227,496 × 21
##     Year Month DayofMonth DayOfWeek DepTime ArrTime UniqueCarrier
## *  &lt;int&gt; &lt;int&gt;      &lt;int&gt;     &lt;int&gt;   &lt;int&gt;   &lt;int&gt;         &lt;chr&gt;
## 1   2011     1          1         6    1400    1500            AA
## 2   2011     1          2         7    1401    1501            AA
## 3   2011     1          3         1    1352    1502            AA
## 4   2011     1          4         2    1403    1513            AA
## 5   2011     1          5         3    1405    1507            AA
## 6   2011     1          6         4    1359    1503            AA
## 7   2011     1          7         5    1359    1509            AA
## 8   2011     1          8         6    1355    1454            AA
## 9   2011     1          9         7    1443    1554            AA
## 10  2011     1         10         1    1443    1553            AA
## # ... with 227,486 more rows, and 14 more variables: FlightNum &lt;int&gt;,
## #   TailNum &lt;chr&gt;, ActualElapsedTime &lt;int&gt;, AirTime &lt;int&gt;, ArrDelay &lt;int&gt;,
## #   DepDelay &lt;int&gt;, Origin &lt;chr&gt;, Dest &lt;chr&gt;, Distance &lt;int&gt;,
## #   TaxiIn &lt;int&gt;, TaxiOut &lt;int&gt;, Cancelled &lt;int&gt;, CancellationCode &lt;chr&gt;,
## #   Diverted &lt;int&gt;
…
 2
 3
 4
 5
 6
 7
 8
 9
10
11
12
13
14

## # A tibble: 227,496 × 4
##    ActualElapsedTime AirTime ArrDelay DepDelay
## *              &lt;int&gt;   &lt;int&gt;    &lt;int&gt;    &lt;int&gt;
## 1                 60      40      -10        0
## 2                 60      45       -9        1
## 3                 70      48       -8       -8
## 4                 70      39        3        3
## 5                 62      44       -3        5
## 6                 64      45       -7       -1
## 7                 70      43       -1       -1
## 8                 59      40      -16       -5
## 9                 71      41       44       43
## 10                70      45       43       43
## # ... with 227,486 more rows
…
 6
 7
 8
 9
10
11
12
13
14
15
16
17
18

## # A tibble: 227,496 × 21
##     Year Month DayofMonth DayOfWeek DepTime ArrTime UniqueCarrier
## *  &lt;int&gt; &lt;int&gt;      &lt;int&gt;     &lt;int&gt;   &lt;int&gt;   &lt;int&gt;         &lt;chr&gt;
## 1   2011     1          1         6    1400    1500      American
## 2   2011     1          2         7    1401    1501      American
## 3   2011     1          3         1    1352    1502      American
## 4   2011     1          4         2    1403    1513      American
## 5   2011     1          5         3    1405    1507      American
## 6   2011     1          6         4    1359    1503      American
## 7   2011     1          7         5    1359    1509      American
## 8   2011     1          8         6    1355    1454      American
## 9   2011     1          9         7    1443    1554      American
## 10  2011     1         10         1    1443    1553      American
## # ... with 227,486 more rows, and 14 more variables: FlightNum &lt;int&gt;,
## #   TailNum &lt;chr&gt;, ActualElapsedTime &lt;int&gt;, AirTime &lt;int&gt;, ArrDelay &lt;int&gt;,
## #   DepDelay &lt;int&gt;, Origin &lt;chr&gt;, Dest &lt;chr&gt;, Distance &lt;int&gt;,
## #   TaxiIn &lt;int&gt;, TaxiOut &lt;int&gt;, Cancelled &lt;int&gt;, CancellationCode &lt;chr&gt;,
## #   Diverted &lt;int&gt;
…
 2
 3
 4
 5
 6
 7
 8
 9
10
11
12
13
14

## # A tibble: 227,496 × 6
##    Origin  Dest Distance TaxiIn TaxiOut Cancelled
## *   &lt;chr&gt; &lt;chr&gt;    &lt;int&gt;  &lt;int&gt;   &lt;int&gt;     &lt;int&gt;
## 1     IAH   DFW      224      7      13         0
## 2     IAH   DFW      224      6       9         0
## 3     IAH   DFW      224      5      17         0
## 4     IAH   DFW      224      9      22         0
## 5     IAH   DFW      224      9       9         0
## 6     IAH   DFW      224      6      13         0
## 7     IAH   DFW      224     12      15         0
## 8     IAH   DFW      224      7      12         0
## 9     IAH   DFW      224      8      22         0
## 10    IAH   DFW      224      6      19         0
## # ... with 227,486 more rows
…
 4
 5
 6
 7
 8
 9
10
11
12
13
14
15
16

## # A tibble: 227,496 × 14
##     Year Month DayofMonth DayOfWeek ArrDelay DepDelay Origin  Dest
## *  &lt;int&gt; &lt;int&gt;      &lt;int&gt;     &lt;int&gt;    &lt;int&gt;    &lt;int&gt;  &lt;chr&gt; &lt;chr&gt;
## 1   2011     1          1         6      -10        0    IAH   DFW
## 2   2011     1          2         7       -9        1    IAH   DFW
## 3   2011     1          3         1       -8       -8    IAH   DFW
## 4   2011     1          4         2        3        3    IAH   DFW
## 5   2011     1          5         3       -3        5    IAH   DFW
## 6   2011     1          6         4       -7       -1    IAH   DFW
## 7   2011     1          7         5       -1       -1    IAH   DFW
## 8   2011     1          8         6      -16       -5    IAH   DFW
## 9   2011     1          9         7       44       43    IAH   DFW
## 10  2011     1         10         1       43       43    IAH   DFW
## # ... with 227,486 more rows, and 6 more variables: Distance &lt;int&gt;,
## #   TaxiIn &lt;int&gt;, TaxiOut &lt;int&gt;, Cancelled &lt;int&gt;, CancellationCode &lt;chr&gt;,
## #   Diverted &lt;int&gt;
…
 2
 3
 4
 5
 6
 7
 8
 9
10
11
12
13
14

## # A tibble: 227,496 × 2
##    ArrDelay DepDelay
## *     &lt;int&gt;    &lt;int&gt;
## 1       -10        0
## 2        -9        1
## 3        -8       -8
## 4         3        3
## 5        -3        5
## 6        -7       -1
## 7        -1       -1
## 8       -16       -5
## 9        44       43
## 10       43       43
## # ... with 227,486 more rows
…
 2
 3
 4
 5
 6
 7
 8
 9
10
11
12
13
14

## # A tibble: 227,496 × 5
##    UniqueCarrier FlightNum TailNum Cancelled CancellationCode
## *          &lt;chr&gt;     &lt;int&gt;   &lt;chr&gt;     &lt;int&gt;            &lt;chr&gt;
## 1       American       428  N576AA         0                 
## 2       American       428  N557AA         0                 
## 3       American       428  N541AA         0                 
## 4       American       428  N403AA         0                 
## 5       American       428  N492AA         0                 
## 6       American       428  N262AA         0                 
## 7       American       428  N493AA         0                 
## 8       American       428  N477AA         0                 
## 9       American       428  N476AA         0                 
## 10      American       428  N504AA         0                 
## # ... with 227,486 more rows
…
 2
 3
 4
 5
 6
 7
 8
 9
10
11
12
13
14

## # A tibble: 227,496 × 6
##    DepTime ArrTime ActualElapsedTime AirTime ArrDelay DepDelay
## *    &lt;int&gt;   &lt;int&gt;             &lt;int&gt;   &lt;int&gt;    &lt;int&gt;    &lt;int&gt;
## 1     1400    1500                60      40      -10        0
## 2     1401    1501                60      45       -9        1
## 3     1352    1502                70      48       -8       -8
## 4     1403    1513                70      39        3        3
## 5     1405    1507                62      44       -3        5
## 6     1359    1503                64      45       -7       -1
## 7     1359    1509                70      43       -1       -1
## 8     1355    1454                59      40      -16       -5
## 9     1443    1554                71      41       44       43
## 10    1443    1553                70      45       43       43
## # ... with 227,486 more rows
…
 7
 8
 9
10
11
12
13
14
15
16
17
18
19

## # A tibble: 227,496 × 24
##     Year Month DayofMonth DayOfWeek DepTime ArrTime UniqueCarrier
##    &lt;int&gt; &lt;int&gt;      &lt;int&gt;     &lt;int&gt;   &lt;int&gt;   &lt;int&gt;         &lt;chr&gt;
## 1   2011     1          1         6    1400    1500      American
## 2   2011     1          2         7    1401    1501      American
## 3   2011     1          3         1    1352    1502      American
## 4   2011     1          4         2    1403    1513      American
## 5   2011     1          5         3    1405    1507      American
## 6   2011     1          6         4    1359    1503      American
## 7   2011     1          7         5    1359    1509      American
## 8   2011     1          8         6    1355    1454      American
## 9   2011     1          9         7    1443    1554      American
## 10  2011     1         10         1    1443    1553      American
## # ... with 227,486 more rows, and 17 more variables: FlightNum &lt;int&gt;,
## #   TailNum &lt;chr&gt;, ActualElapsedTime &lt;int&gt;, AirTime &lt;int&gt;, ArrDelay &lt;int&gt;,
## #   DepDelay &lt;int&gt;, Origin &lt;chr&gt;, Dest &lt;chr&gt;, Distance &lt;int&gt;,
## #   TaxiIn &lt;int&gt;, TaxiOut &lt;int&gt;, Cancelled &lt;int&gt;, CancellationCode &lt;chr&gt;,
## #   Diverted &lt;int&gt;, ActualGroundTime &lt;int&gt;, GroundTime &lt;int&gt;,
## #   AverageSpeed &lt;dbl&gt;
…
 6
 7
 8
 9
10
11
12
13
14
15
16
17
18

## # A tibble: 527 × 21
##     Year Month DayofMonth DayOfWeek DepTime ArrTime UniqueCarrier
##    &lt;int&gt; &lt;int&gt;      &lt;int&gt;     &lt;int&gt;   &lt;int&gt;   &lt;int&gt;         &lt;chr&gt;
## 1   2011     1         31         1     924    1413   Continental
## 2   2011     1         30         7     925    1410   Continental
## 3   2011     1         29         6    1045    1445   Continental
## 4   2011     1         28         5    1516    1916   Continental
## 5   2011     1         27         4     950    1344   Continental
## 6   2011     1         26         3     944    1350   Continental
## 7   2011     1         25         2     924    1337   Continental
## 8   2011     1         24         1    1144    1605   Continental
## 9   2011     1         23         7     926    1335   Continental
## 10  2011     1         22         6     942    1340   Continental
## # ... with 517 more rows, and 14 more variables: FlightNum &lt;int&gt;,
## #   TailNum &lt;chr&gt;, ActualElapsedTime &lt;int&gt;, AirTime &lt;int&gt;, ArrDelay &lt;int&gt;,
## #   DepDelay &lt;int&gt;, Origin &lt;chr&gt;, Dest &lt;chr&gt;, Distance &lt;int&gt;,
## #   TaxiIn &lt;int&gt;, TaxiOut &lt;int&gt;, Cancelled &lt;int&gt;, CancellationCode &lt;chr&gt;,
## #   Diverted &lt;int&gt;
…
 6
 7
 8
 9
10
11
12
13
14
15
16
17
18

## # A tibble: 48,679 × 21
##     Year Month DayofMonth DayOfWeek DepTime ArrTime UniqueCarrier
##    &lt;int&gt; &lt;int&gt;      &lt;int&gt;     &lt;int&gt;   &lt;int&gt;   &lt;int&gt;         &lt;chr&gt;
## 1   2011     1          1         6     654    1124       JetBlue
## 2   2011     1          1         6    1639    2110       JetBlue
## 3   2011     1          2         7     703    1113       JetBlue
## 4   2011     1          2         7    1604    2040       JetBlue
## 5   2011     1          3         1     659    1100       JetBlue
## 6   2011     1          3         1    1801    2200       JetBlue
## 7   2011     1          4         2     654    1103       JetBlue
## 8   2011     1          4         2    1608    2034       JetBlue
## 9   2011     1          5         3     700    1103       JetBlue
## 10  2011     1          5         3    1544    1954       JetBlue
## # ... with 48,669 more rows, and 14 more variables: FlightNum &lt;int&gt;,
## #   TailNum &lt;chr&gt;, ActualElapsedTime &lt;int&gt;, AirTime &lt;int&gt;, ArrDelay &lt;int&gt;,
## #   DepDelay &lt;int&gt;, Origin &lt;chr&gt;, Dest &lt;chr&gt;, Distance &lt;int&gt;,
## #   TaxiIn &lt;int&gt;, TaxiOut &lt;int&gt;, Cancelled &lt;int&gt;, CancellationCode &lt;chr&gt;,
## #   Diverted &lt;int&gt;
…
 6
 7
 8
 9
10
11
12
13
14
15
16
17
18

## # A tibble: 1,389 × 21
##     Year Month DayofMonth DayOfWeek DepTime ArrTime UniqueCarrier
##    &lt;int&gt; &lt;int&gt;      &lt;int&gt;     &lt;int&gt;   &lt;int&gt;   &lt;int&gt;         &lt;chr&gt;
## 1   2011     1         24         1     731     904      American
## 2   2011     1         30         7    1959    2132      American
## 3   2011     1         24         1    1621    1749      American
## 4   2011     1         10         1     941    1113      American
## 5   2011     1         31         1    1301    1356   Continental
## 6   2011     1         31         1    2113    2215   Continental
## 7   2011     1         31         1    1434    1539   Continental
## 8   2011     1         31         1     900    1006   Continental
## 9   2011     1         30         7    1304    1408   Continental
## 10  2011     1         30         7    2004    2128   Continental
## # ... with 1,379 more rows, and 14 more variables: FlightNum &lt;int&gt;,
## #   TailNum &lt;chr&gt;, ActualElapsedTime &lt;int&gt;, AirTime &lt;int&gt;, ArrDelay &lt;int&gt;,
## #   DepDelay &lt;int&gt;, Origin &lt;chr&gt;, Dest &lt;chr&gt;, Distance &lt;int&gt;,
## #   TaxiIn &lt;int&gt;, TaxiOut &lt;int&gt;, Cancelled &lt;int&gt;, CancellationCode &lt;chr&gt;,
## #   Diverted &lt;int&gt;
…
 6
 7
 8
 9
10
11
12
13
14
15
16
17
18

## # A tibble: 27,799 × 21
##     Year Month DayofMonth DayOfWeek DepTime ArrTime UniqueCarrier
##    &lt;int&gt; &lt;int&gt;      &lt;int&gt;     &lt;int&gt;   &lt;int&gt;   &lt;int&gt;         &lt;chr&gt;
## 1   2011     1          4         2    2100    2207      American
## 2   2011     1         14         5    2119    2229      American
## 3   2011     1         10         1    1934    2235      American
## 4   2011     1         26         3    1905    2211      American
## 5   2011     1         30         7    1856    2209      American
## 6   2011     1          9         7    1938    2228        Alaska
## 7   2011     1         31         1    1919    2231   Continental
## 8   2011     1         31         1    2116    2344   Continental
## 9   2011     1         31         1    1850    2211   Continental
## 10  2011     1         31         1    2102    2216   Continental
## # ... with 27,789 more rows, and 14 more variables: FlightNum &lt;int&gt;,
## #   TailNum &lt;chr&gt;, ActualElapsedTime &lt;int&gt;, AirTime &lt;int&gt;, ArrDelay &lt;int&gt;,
## #   DepDelay &lt;int&gt;, Origin &lt;chr&gt;, Dest &lt;chr&gt;, Distance &lt;int&gt;,
## #   TaxiIn &lt;int&gt;, TaxiOut &lt;int&gt;, Cancelled &lt;int&gt;, CancellationCode &lt;chr&gt;,
## #   Diverted &lt;int&gt;
…
 6
 7
 8
 9
10
11
12
13
14
15
16
17
18

## # A tibble: 27,712 × 21
##     Year Month DayofMonth DayOfWeek DepTime ArrTime UniqueCarrier
##    &lt;int&gt; &lt;int&gt;      &lt;int&gt;     &lt;int&gt;   &lt;int&gt;   &lt;int&gt;         &lt;chr&gt;
## 1   2011     1          2         7    1401    1501      American
## 2   2011     1          5         3    1405    1507      American
## 3   2011     1         18         2    1408    1508      American
## 4   2011     1         18         2     721     827      American
## 5   2011     1         12         3    2015    2113      American
## 6   2011     1         13         4    2020    2116      American
## 7   2011     1         26         3    2009    2103      American
## 8   2011     1          1         6    1631    1736      American
## 9   2011     1         10         1    1639    1740      American
## 10  2011     1         12         3    1631    1739      American
## # ... with 27,702 more rows, and 14 more variables: FlightNum &lt;int&gt;,
## #   TailNum &lt;chr&gt;, ActualElapsedTime &lt;int&gt;, AirTime &lt;int&gt;, ArrDelay &lt;int&gt;,
## #   DepDelay &lt;int&gt;, Origin &lt;chr&gt;, Dest &lt;chr&gt;, Distance &lt;int&gt;,
## #   TaxiIn &lt;int&gt;, TaxiOut &lt;int&gt;, Cancelled &lt;int&gt;, CancellationCode &lt;chr&gt;,
## #   Diverted &lt;int&gt;
…
 6
 7
 8
 9
10
11
12
13
14
15
16
17
18

## # A tibble: 585 × 21
##     Year Month DayofMonth DayOfWeek DepTime ArrTime      UniqueCarrier
##    &lt;int&gt; &lt;int&gt;      &lt;int&gt;     &lt;int&gt;   &lt;int&gt;   &lt;int&gt;              &lt;chr&gt;
## 1   2011     1          9         7      NA      NA           American
## 2   2011     1         29         6      NA      NA        Continental
## 3   2011     1          9         7      NA      NA        Continental
## 4   2011     1          9         7      NA      NA              Delta
## 5   2011     1          9         7      NA      NA            SkyWest
## 6   2011     1          2         7      NA      NA          Southwest
## 7   2011     1         29         6      NA      NA              Delta
## 8   2011     1          9         7      NA      NA Atlantic_Southeast
## 9   2011     1          1         6      NA      NA            AirTran
## 10  2011     1          9         7      NA      NA            AirTran
## # ... with 575 more rows, and 14 more variables: FlightNum &lt;int&gt;,
## #   TailNum &lt;chr&gt;, ActualElapsedTime &lt;int&gt;, AirTime &lt;int&gt;, ArrDelay &lt;int&gt;,
## #   DepDelay &lt;int&gt;, Origin &lt;chr&gt;, Dest &lt;chr&gt;, Distance &lt;int&gt;,
## #   TaxiIn &lt;int&gt;, TaxiOut &lt;int&gt;, Cancelled &lt;int&gt;, CancellationCode &lt;chr&gt;,
## #   Diverted &lt;int&gt;
…
 6
 7
 8
 9
10
11
12
13
14
15
16
17
18

## # A tibble: 40 × 21
##     Year Month DayofMonth DayOfWeek DepTime ArrTime UniqueCarrier
##    &lt;int&gt; &lt;int&gt;      &lt;int&gt;     &lt;int&gt;   &lt;int&gt;   &lt;int&gt;         &lt;chr&gt;
## 1   2011     1         26         3    1926      NA   Continental
## 2   2011     1         11         2    1100      NA    US_Airways
## 3   2011     1         19         3    1811      NA    ExpressJet
## 4   2011     1          7         5    2028      NA    ExpressJet
## 5   2011     2          4         5    1638      NA      American
## 6   2011     2          8         2    1057      NA   Continental
## 7   2011     2          2         3     802      NA    ExpressJet
## 8   2011     2          9         3     904      NA    ExpressJet
## 9   2011     2          1         2    1508      NA       SkyWest
## 10  2011     3         31         4    1016      NA   Continental
## # ... with 30 more rows, and 14 more variables: FlightNum &lt;int&gt;,
## #   TailNum &lt;chr&gt;, ActualElapsedTime &lt;int&gt;, AirTime &lt;int&gt;, ArrDelay &lt;int&gt;,
## #   DepDelay &lt;int&gt;, Origin &lt;chr&gt;, Dest &lt;chr&gt;, Distance &lt;int&gt;,
## #   TaxiIn &lt;int&gt;, TaxiOut &lt;int&gt;, Cancelled &lt;int&gt;, CancellationCode &lt;chr&gt;,
## #   Diverted &lt;int&gt;
…
 2
 3
 4
 5
 6
 7
 8
 9
10
11
12
13
14

## # A tibble: 695 × 4
##        Date DepTime ArrTime TailNum
##       &lt;chr&gt;   &lt;int&gt;   &lt;int&gt;   &lt;chr&gt;
## 1  2011-1-1     654    1124  N324JB
## 2  2011-1-1    1639    2110  N324JB
## 3  2011-1-2     703    1113  N324JB
## 4  2011-1-2    1604    2040  N324JB
## 5  2011-1-3     659    1100  N229JB
## 6  2011-1-3    1801    2200  N206JB
## 7  2011-1-4     654    1103  N267JB
## 8  2011-1-4    1608    2034  N267JB
## 9  2011-1-5     700    1103  N708JB
## 10 2011-1-5    1544    1954  N644JB
## # ... with 685 more rows
…
