…
**Convert `data.frame` to table**

``` r
# Convert the hflights data.frame into a hflights tbl
hflights <- tbl_df(hflights)

# Display the hflights tbl
hflights
```

    ## # A tibble: 227,496 × 21
    ##     Year Month DayofMonth DayOfWeek DepTime ArrTime UniqueCarrier
    ## *  <int> <int>      <int>     <int>   <int>   <int>         <chr>
    ## 1   2011     1          1         6    1400    1500            AA
    ## 2   2011     1          2         7    1401    1501            AA
    ## 3   2011     1          3         1    1352    1502            AA
    ## 4   2011     1          4         2    1403    1513            AA
    ## 5   2011     1          5         3    1405    1507            AA
    ## 6   2011     1          6         4    1359    1503            AA
    ## 7   2011     1          7         5    1359    1509            AA
    ## 8   2011     1          8         6    1355    1454            AA
    ## 9   2011     1          9         7    1443    1554            AA
    ## 10  2011     1         10         1    1443    1553            AA
    ## # ... with 227,486 more rows, and 14 more variables: FlightNum <int>,
    ## #   TailNum <chr>, ActualElapsedTime <int>, AirTime <int>, ArrDelay <int>,
    ## #   DepDelay <int>, Origin <chr>, Dest <chr>, Distance <int>,
    ## #   TaxiIn <int>, TaxiOut <int>, Cancelled <int>, CancellationCode <chr>,
    ## #   Diverted <int>
…
**Choosing is not losing! The `select` verb**

``` r
# Print out a tbl with the four columns of hflights related to delay
select(hflights, ActualElapsedTime, AirTime, ArrDelay, DepDelay)
```

    ## # A tibble: 227,496 × 4
    ##    ActualElapsedTime AirTime ArrDelay DepDelay
    ## *              <int>   <int>    <int>    <int>
    ## 1                 60      40      -10        0
    ## 2                 60      45       -9        1
    ## 3                 70      48       -8       -8
    ## 4                 70      39        3        3
    ## 5                 62      44       -3        5
    ## 6                 64      45       -7       -1
    ## 7                 70      43       -1       -1
    ## 8                 59      40      -16       -5
    ## 9                 71      41       44       43
    ## 10                70      45       43       43
    ## # ... with 227,486 more rows

``` r
# Print out hflights, nothing has changed!
hflights
```

    ## # A tibble: 227,496 × 21
    ##     Year Month DayofMonth DayOfWeek DepTime ArrTime UniqueCarrier
    ## *  <int> <int>      <int>     <int>   <int>   <int>         <chr>
    ## 1   2011     1          1         6    1400    1500      American
    ## 2   2011     1          2         7    1401    1501      American
    ## 3   2011     1          3         1    1352    1502      American
    ## 4   2011     1          4         2    1403    1513      American
    ## 5   2011     1          5         3    1405    1507      American
    ## 6   2011     1          6         4    1359    1503      American
    ## 7   2011     1          7         5    1359    1509      American
    ## 8   2011     1          8         6    1355    1454      American
    ## 9   2011     1          9         7    1443    1554      American
    ## 10  2011     1         10         1    1443    1553      American
    ## # ... with 227,486 more rows, and 14 more variables: FlightNum <int>,
    ## #   TailNum <chr>, ActualElapsedTime <int>, AirTime <int>, ArrDelay <int>,
    ## #   DepDelay <int>, Origin <chr>, Dest <chr>, Distance <int>,
    ## #   TaxiIn <int>, TaxiOut <int>, Cancelled <int>, CancellationCode <chr>,
    ## #   Diverted <int>

``` r
# Print out the columns Origin up to Cancelled of hflights
select(hflights, 14:19)
```

    ## # A tibble: 227,496 × 6
    ##    Origin  Dest Distance TaxiIn TaxiOut Cancelled
    ## *   <chr> <chr>    <int>  <int>   <int>     <int>
    ## 1     IAH   DFW      224      7      13         0
    ## 2     IAH   DFW      224      6       9         0
    ## 3     IAH   DFW      224      5      17         0
    ## 4     IAH   DFW      224      9      22         0
    ## 5     IAH   DFW      224      9       9         0
    ## 6     IAH   DFW      224      6      13         0
    ## 7     IAH   DFW      224     12      15         0
    ## 8     IAH   DFW      224      7      12         0
    ## 9     IAH   DFW      224      8      22         0
    ## 10    IAH   DFW      224      6      19         0
    ## # ... with 227,486 more rows

``` r
# Answer to last question: be concise!
select(hflights, 1:4, 12:21)
```

    ## # A tibble: 227,496 × 14
    ##     Year Month DayofMonth DayOfWeek ArrDelay DepDelay Origin  Dest
    ## *  <int> <int>      <int>     <int>    <int>    <int>  <chr> <chr>
    ## 1   2011     1          1         6      -10        0    IAH   DFW
    ## 2   2011     1          2         7       -9        1    IAH   DFW
    ## 3   2011     1          3         1       -8       -8    IAH   DFW
    ## 4   2011     1          4         2        3        3    IAH   DFW
    ## 5   2011     1          5         3       -3        5    IAH   DFW
    ## 6   2011     1          6         4       -7       -1    IAH   DFW
    ## 7   2011     1          7         5       -1       -1    IAH   DFW
    ## 8   2011     1          8         6      -16       -5    IAH   DFW
    ## 9   2011     1          9         7       44       43    IAH   DFW
    ## 10  2011     1         10         1       43       43    IAH   DFW
    ## # ... with 227,486 more rows, and 6 more variables: Distance <int>,
    ## #   TaxiIn <int>, TaxiOut <int>, Cancelled <int>, CancellationCode <chr>,
    ## #   Diverted <int>
…
<!-- -->

``` r
# Print out a tbl containing just ArrDelay and DepDelay
select(hflights, ArrDelay, DepDelay)
```

    ## # A tibble: 227,496 × 2
    ##    ArrDelay DepDelay
    ## *     <int>    <int>
    ## 1       -10        0
    ## 2        -9        1
    ## 3        -8       -8
    ## 4         3        3
    ## 5        -3        5
    ## 6        -7       -1
    ## 7        -1       -1
    ## 8       -16       -5
    ## 9        44       43
    ## 10       43       43
    ## # ... with 227,486 more rows

``` r
# Print out a tbl as described in the second instruction, using both helper functions and variable names
select(hflights, UniqueCarrier, ends_with('Num'), starts_with('Cancel'))
```

    ## # A tibble: 227,496 × 5
    ##    UniqueCarrier FlightNum TailNum Cancelled CancellationCode
    ## *          <chr>     <int>   <chr>     <int>            <chr>
    ## 1       American       428  N576AA         0                 
    ## 2       American       428  N557AA         0                 
    ## 3       American       428  N541AA         0                 
    ## 4       American       428  N403AA         0                 
    ## 5       American       428  N492AA         0                 
    ## 6       American       428  N262AA         0                 
    ## 7       American       428  N493AA         0                 
    ## 8       American       428  N477AA         0                 
    ## 9       American       428  N476AA         0                 
    ## 10      American       428  N504AA         0                 
    ## # ... with 227,486 more rows

``` r
# Print out a tbl as described in the third instruction, using only helper functions.
select(hflights, ends_with('Time'), ends_with('Delay'))
```

    ## # A tibble: 227,496 × 6
    ##    DepTime ArrTime ActualElapsedTime AirTime ArrDelay DepDelay
    ## *    <int>   <int>             <int>   <int>    <int>    <int>
    ## 1     1400    1500                60      40      -10        0
    ## 2     1401    1501                60      45       -9        1
    ## 3     1352    1502                70      48       -8       -8
    ## 4     1403    1513                70      39        3        3
    ## 5     1405    1507                62      44       -3        5
    ## 6     1359    1503                64      45       -7       -1
    ## 7     1359    1509                70      43       -1       -1
    ## 8     1355    1454                59      40      -16       -5
    ## 9     1443    1554                71      41       44       43
    ## 10    1443    1553                70      45       43       43
    ## # ... with 227,486 more rows
…
head(g1$ActualGroundTime == g2$GroundTime, 20)
```

    ##  [1] TRUE TRUE TRUE TRUE TRUE TRUE TRUE TRUE TRUE TRUE TRUE TRUE TRUE TRUE
    ## [15] TRUE TRUE TRUE TRUE TRUE TRUE

``` r
# Add the new variable AverageSpeed to g2; save the result as g3
g3 <- mutate(g2, AverageSpeed = Distance / AirTime * 60)
g3
```

    ## # A tibble: 227,496 × 24
    ##     Year Month DayofMonth DayOfWeek DepTime ArrTime UniqueCarrier
    ##    <int> <int>      <int>     <int>   <int>   <int>         <chr>
    ## 1   2011     1          1         6    1400    1500      American
    ## 2   2011     1          2         7    1401    1501      American
    ## 3   2011     1          3         1    1352    1502      American
    ## 4   2011     1          4         2    1403    1513      American
    ## 5   2011     1          5         3    1405    1507      American
    ## 6   2011     1          6         4    1359    1503      American
    ## 7   2011     1          7         5    1359    1509      American
    ## 8   2011     1          8         6    1355    1454      American
    ## 9   2011     1          9         7    1443    1554      American
    ## 10  2011     1         10         1    1443    1553      American
    ## # ... with 227,486 more rows, and 17 more variables: FlightNum <int>,
    ## #   TailNum <chr>, ActualElapsedTime <int>, AirTime <int>, ArrDelay <int>,
    ## #   DepDelay <int>, Origin <chr>, Dest <chr>, Distance <int>,
    ## #   TaxiIn <int>, TaxiOut <int>, Cancelled <int>, CancellationCode <chr>,
    ## #   Diverted <int>, ActualGroundTime <int>, GroundTime <int>,
    ## #   AverageSpeed <dbl>
…
<!-- -->

``` r
# All flights that traveled 3000 miles or more
filter(hflights, Distance >= 3000)
```

    ## # A tibble: 527 × 21
    ##     Year Month DayofMonth DayOfWeek DepTime ArrTime UniqueCarrier
    ##    <int> <int>      <int>     <int>   <int>   <int>         <chr>
    ## 1   2011     1         31         1     924    1413   Continental
    ## 2   2011     1         30         7     925    1410   Continental
    ## 3   2011     1         29         6    1045    1445   Continental
    ## 4   2011     1         28         5    1516    1916   Continental
    ## 5   2011     1         27         4     950    1344   Continental
    ## 6   2011     1         26         3     944    1350   Continental
    ## 7   2011     1         25         2     924    1337   Continental
    ## 8   2011     1         24         1    1144    1605   Continental
    ## 9   2011     1         23         7     926    1335   Continental
    ## 10  2011     1         22         6     942    1340   Continental
    ## # ... with 517 more rows, and 14 more variables: FlightNum <int>,
    ## #   TailNum <chr>, ActualElapsedTime <int>, AirTime <int>, ArrDelay <int>,
    ## #   DepDelay <int>, Origin <chr>, Dest <chr>, Distance <int>,
    ## #   TaxiIn <int>, TaxiOut <int>, Cancelled <int>, CancellationCode <chr>,
    ## #   Diverted <int>

``` r
# All flights flown by one of JetBlue, Southwest, or Delta
filter(hflights, UniqueCarrier %in% c('JetBlue','Southwest','Delta'))
```

    ## # A tibble: 48,679 × 21
    ##     Year Month DayofMonth DayOfWeek DepTime ArrTime UniqueCarrier
    ##    <int> <int>      <int>     <int>   <int>   <int>         <chr>
    ## 1   2011     1          1         6     654    1124       JetBlue
    ## 2   2011     1          1         6    1639    2110       JetBlue
    ## 3   2011     1          2         7     703    1113       JetBlue
    ## 4   2011     1          2         7    1604    2040       JetBlue
    ## 5   2011     1          3         1     659    1100       JetBlue
    ## 6   2011     1          3         1    1801    2200       JetBlue
    ## 7   2011     1          4         2     654    1103       JetBlue
    ## 8   2011     1          4         2    1608    2034       JetBlue
    ## 9   2011     1          5         3     700    1103       JetBlue
    ## 10  2011     1          5         3    1544    1954       JetBlue
    ## # ... with 48,669 more rows, and 14 more variables: FlightNum <int>,
    ## #   TailNum <chr>, ActualElapsedTime <int>, AirTime <int>, ArrDelay <int>,
    ## #   DepDelay <int>, Origin <chr>, Dest <chr>, Distance <int>,
    ## #   TaxiIn <int>, TaxiOut <int>, Cancelled <int>, CancellationCode <chr>,
    ## #   Diverted <int>

``` r
# All flights where taxiing took longer than flying
filter(hflights, (TaxiIn + TaxiOut) > AirTime)
```

    ## # A tibble: 1,389 × 21
    ##     Year Month DayofMonth DayOfWeek DepTime ArrTime UniqueCarrier
    ##    <int> <int>      <int>     <int>   <int>   <int>         <chr>
    ## 1   2011     1         24         1     731     904      American
    ## 2   2011     1         30         7    1959    2132      American
    ## 3   2011     1         24         1    1621    1749      American
    ## 4   2011     1         10         1     941    1113      American
    ## 5   2011     1         31         1    1301    1356   Continental
    ## 6   2011     1         31         1    2113    2215   Continental
    ## 7   2011     1         31         1    1434    1539   Continental
    ## 8   2011     1         31         1     900    1006   Continental
    ## 9   2011     1         30         7    1304    1408   Continental
    ## 10  2011     1         30         7    2004    2128   Continental
    ## # ... with 1,379 more rows, and 14 more variables: FlightNum <int>,
    ## #   TailNum <chr>, ActualElapsedTime <int>, AirTime <int>, ArrDelay <int>,
    ## #   DepDelay <int>, Origin <chr>, Dest <chr>, Distance <int>,
    ## #   TaxiIn <int>, TaxiOut <int>, Cancelled <int>, CancellationCode <chr>,
    ## #   Diverted <int>

**Combining tests using boolean operators**

``` r
# All flights that departed before 5am or arrived after 10pm
filter(hflights, DepTime < 500 | ArrTime > 2200)
```

    ## # A tibble: 27,799 × 21
    ##     Year Month DayofMonth DayOfWeek DepTime ArrTime UniqueCarrier
    ##    <int> <int>      <int>     <int>   <int>   <int>         <chr>
    ## 1   2011     1          4         2    2100    2207      American
    ## 2   2011     1         14         5    2119    2229      American
    ## 3   2011     1         10         1    1934    2235      American
    ## 4   2011     1         26         3    1905    2211      American
    ## 5   2011     1         30         7    1856    2209      American
    ## 6   2011     1          9         7    1938    2228        Alaska
    ## 7   2011     1         31         1    1919    2231   Continental
    ## 8   2011     1         31         1    2116    2344   Continental
    ## 9   2011     1         31         1    1850    2211   Continental
    ## 10  2011     1         31         1    2102    2216   Continental
    ## # ... with 27,789 more rows, and 14 more variables: FlightNum <int>,
    ## #   TailNum <chr>, ActualElapsedTime <int>, AirTime <int>, ArrDelay <int>,
    ## #   DepDelay <int>, Origin <chr>, Dest <chr>, Distance <int>,
    ## #   TaxiIn <int>, TaxiOut <int>, Cancelled <int>, CancellationCode <chr>,
    ## #   Diverted <int>

``` r
# All flights that departed late but arrived ahead of schedule
filter(hflights, DepDelay > 0 & ArrDelay < 0)
```

    ## # A tibble: 27,712 × 21
    ##     Year Month DayofMonth DayOfWeek DepTime ArrTime UniqueCarrier
    ##    <int> <int>      <int>     <int>   <int>   <int>         <chr>
    ## 1   2011     1          2         7    1401    1501      American
    ## 2   2011     1          5         3    1405    1507      American
    ## 3   2011     1         18         2    1408    1508      American
    ## 4   2011     1         18         2     721     827      American
    ## 5   2011     1         12         3    2015    2113      American
    ## 6   2011     1         13         4    2020    2116      American
    ## 7   2011     1         26         3    2009    2103      American
    ## 8   2011     1          1         6    1631    1736      American
    ## 9   2011     1         10         1    1639    1740      American
    ## 10  2011     1         12         3    1631    1739      American
    ## # ... with 27,702 more rows, and 14 more variables: FlightNum <int>,
    ## #   TailNum <chr>, ActualElapsedTime <int>, AirTime <int>, ArrDelay <int>,
    ## #   DepDelay <int>, Origin <chr>, Dest <chr>, Distance <int>,
    ## #   TaxiIn <int>, TaxiOut <int>, Cancelled <int>, CancellationCode <chr>,
    ## #   Diverted <int>

``` r
# All cancelled weekend flights
filter(hflights, DayOfWeek %in% c(6,7) & Cancelled == 1)
```

    ## # A tibble: 585 × 21
    ##     Year Month DayofMonth DayOfWeek DepTime ArrTime      UniqueCarrier
    ##    <int> <int>      <int>     <int>   <int>   <int>              <chr>
    ## 1   2011     1          9         7      NA      NA           American
    ## 2   2011     1         29         6      NA      NA        Continental
    ## 3   2011     1          9         7      NA      NA        Continental
    ## 4   2011     1          9         7      NA      NA              Delta
    ## 5   2011     1          9         7      NA      NA            SkyWest
    ## 6   2011     1          2         7      NA      NA          Southwest
    ## 7   2011     1         29         6      NA      NA              Delta
    ## 8   2011     1          9         7      NA      NA Atlantic_Southeast
    ## 9   2011     1          1         6      NA      NA            AirTran
    ## 10  2011     1          9         7      NA      NA            AirTran
    ## # ... with 575 more rows, and 14 more variables: FlightNum <int>,
    ## #   TailNum <chr>, ActualElapsedTime <int>, AirTime <int>, ArrDelay <int>,
    ## #   DepDelay <int>, Origin <chr>, Dest <chr>, Distance <int>,
    ## #   TaxiIn <int>, TaxiOut <int>, Cancelled <int>, CancellationCode <chr>,
    ## #   Diverted <int>

``` r
# All flights that were cancelled after being delayed
filter(hflights, DepDelay > 0 & Cancelled == 1)
```

    ## # A tibble: 40 × 21
    ##     Year Month DayofMonth DayOfWeek DepTime ArrTime UniqueCarrier
    ##    <int> <int>      <int>     <int>   <int>   <int>         <chr>
    ## 1   2011     1         26         3    1926      NA   Continental
    ## 2   2011     1         11         2    1100      NA    US_Airways
    ## 3   2011     1         19         3    1811      NA    ExpressJet
    ## 4   2011     1          7         5    2028      NA    ExpressJet
    ## 5   2011     2          4         5    1638      NA      American
    ## 6   2011     2          8         2    1057      NA   Continental
    ## 7   2011     2          2         3     802      NA    ExpressJet
    ## 8   2011     2          9         3     904      NA    ExpressJet
    ## 9   2011     2          1         2    1508      NA       SkyWest
    ## 10  2011     3         31         4    1016      NA   Continental
    ## # ... with 30 more rows, and 14 more variables: FlightNum <int>,
    ## #   TailNum <chr>, ActualElapsedTime <int>, AirTime <int>, ArrDelay <int>,
    ## #   DepDelay <int>, Origin <chr>, Dest <chr>, Distance <int>,
    ## #   TaxiIn <int>, TaxiOut <int>, Cancelled <int>, CancellationCode <chr>,
    ## #   Diverted <int>
…
